[
  {"link_type":"video_recipe","recipe":{"link_value":102822,"item_name":"越南炸鸡","item_title":"你吃过越南炸鸡吗？","cover_image":"http://haemuk-production.oss-cn-shanghai.aliyuncs.com/uploads/recipe/main_image_file/102822/resized_768_1024____________2016-07-27_______10.32.10.jpg?x-oss-process=style/rt600","item_image":"http://haemuk-production.oss-cn-shanghai.aliyuncs.com/uploads/recipe/image_file/102822/resized_768_1024____________2016-07-27_______10.32.10.jpg?x-oss-process=style/rt600","item_vod":"http://haemuk-production.oss-cn-shanghai.aliyuncs.com/uploads/recipe/vod_file/102822/vietnam_chicken_thumb.mp4","items_vod":[{"resolution":"original","url":"http://haemuk-production.oss-cn-shanghai.aliyuncs.com/uploads/recipe/vod_file/102822/vietnam_chicken_thumb.mp4"},{"resolution":"360","url":"http://haemuk-production.oss-cn-shanghai.aliyuncs.com/uploads/recipe/vod_file/102822/resized_360_vietnam_chicken_thumb.mp4"},{"resolution":"480","url":"http://haemuk-production.oss-cn-shanghai.aliyuncs.com/uploads/recipe/vod_file/102822/resized_480_vietnam_chicken_thumb.mp4"},{"resolution":"720","url":"http://haemuk-production.oss-cn-shanghai.aliyuncs.com/uploads/recipe/vod_file/102822/resized_720_vietnam_chicken_thumb.mp4"}],"hash_tags":"#米皮 #视频 #炸鸡 #夜宵 #零食 #下酒菜 #视频菜谱 #美食男女 #越南炸鸡 #油炸食品","difficulty":"중","cooking_time":"30","bookmarks_count":2275,"view_count":27561,"popularity_score":471,"user_name":"美食男女","is_bookmarked":false}},{"link_type":"recipe","recipe":{"link_value":102661,"item_name":"魔鬼蛋","item_title":"家庭聚会鸡蛋料理","cover_image":"http://haemuk-production.oss-cn-shanghai.aliyuncs.com/uploads/recipe/main_image_file/102661/resized_768_1024_cover_2661.jpg?x-oss-process=style/rt600","item_image":"http://haemuk-production.oss-cn-shanghai.aliyuncs.com/uploads/recipe/image_file/102661/resized_768_1024_main_2661.jpg?x-oss-process=style/rt600","item_vod":null,"items_vod":[],"hash_tags":"#鸡蛋料理 #简单的料理 #家庭聚会料理","difficulty":"하","cooking_time":"25","bookmarks_count":926,"view_count":9728,"popularity_score":135,"user_name":"Maple Daniel","is_bookmarked":false}},{"link_type":"recipe","recipe":{"link_value":102662,"item_name":"烤排骨鸡","item_title":"在外面吃更好吃的野营料理，烤排骨鸡","cover_image":"http://haemuk-production.oss-cn-shanghai.aliyuncs.com/uploads/recipe/main_image_file/102662/resized_768_1024_cover_2662.jpg?x-oss-process=style/rt600","item_image":"http://haemuk-production.oss-cn-shanghai.aliyuncs.com/uploads/recipe/image_file/102662/resized_768_1024_main_2662.jpg?x-oss-process=style/rt600","item_vod":null,"items_vod":[],"hash_tags":"#假期料理 #野营料理 #烤排骨鸡","difficulty":"하","cooking_time":"15","bookmarks_count":615,"view_count":6764,"popularity_score":137,"user_name":"Maple Daniel","is_bookmarked":false}},{"link_type":"recipe","recipe":{"link_value":102657,"item_name":"火腿奶油芝士薄饼","item_title":"一口一个火腿奶油芝士薄饼","cover_image":"http://haemuk-production.oss-cn-shanghai.aliyuncs.com/uploads/recipe/main_image_file/102657/resized_768_1024_cover_2657.jpg?x-oss-process=style/rt600","item_image":"http://haemuk-production.oss-cn-shanghai.aliyuncs.com/uploads/recipe/image_file/102657/resized_768_1024_main_2657.jpg?x-oss-process=style/rt600","item_vod":null,"items_vod":[],"hash_tags":"#火腿 #奶油 #芝士 #芝士薄饼 #火腿奶油芝士薄饼","difficulty":"중","cooking_time":"20","bookmarks_count":755,"view_count":7326,"popularity_score":161,"user_name":"Beerboy","is_bookmarked":false}},{"link_type":"video_recipe","recipe":{"link_value":102620,"item_name":"LA 排骨","item_title":"加入梨汁更美味","cover_image":"http://haemuk-production.oss-cn-shanghai.aliyuncs.com/uploads/recipe/main_image_file/102620/resized_768_1024_cover_2620.jpg?x-oss-process=style/rt600","item_image":"http://haemuk-production.oss-cn-shanghai.aliyuncs.com/uploads/recipe/image_file/102620/resized_768_1024_main_2620.jpg?x-oss-process=style/rt600","item_vod":"http://haemuk-production.oss-cn-shanghai.aliyuncs.com/uploads/recipe/vod_file/102620/LA_galbi_thumb.mp4","items_vod":[{"resolution":"original","url":"http://haemuk-production.oss-cn-shanghai.aliyuncs.com/uploads/recipe/vod_file/102620/LA_galbi_thumb.mp4"},{"resolution":"360","url":"http://haemuk-production.oss-cn-shanghai.aliyuncs.com/uploads/recipe/vod_file/102620/resized_360_LA_galbi_thumb.mp4"},{"resolution":"480","url":"http://haemuk-production.oss-cn-shanghai.aliyuncs.com/uploads/recipe/vod_file/102620/resized_480_LA_galbi_thumb.mp4"},{"resolution":"720","url":"http://haemuk-production.oss-cn-shanghai.aliyuncs.com/uploads/recipe/vod_file/102620/resized_720_LA_galbi_thumb.mp4"}],"hash_tags":"#排骨 #牛排 #牛肉 #LA #LA 排骨","difficulty":"중","cooking_time":"120","bookmarks_count":2544,"view_count":23296,"popularity_score":409,"user_name":"美食男女","is_bookmarked":false}},{"link_type":"video_recipe","recipe":{"link_value":102621,"item_name":"意大利冷面","item_title":"炎炎夏日用爽口的意大利冷面来度过一个有格调的午餐时间吧","cover_image":"http://haemuk-production.oss-cn-shanghai.aliyuncs.com/uploads/recipe/main_image_file/102621/resized_768_1024_cover_2621.jpg?x-oss-process=style/rt600","item_image":"http://haemuk-production.oss-cn-shanghai.aliyuncs.com/uploads/recipe/image_file/102621/resized_768_1024_main_2621.jpg?x-oss-process=style/rt600","item_vod":"http://haemuk-production.oss-cn-shanghai.aliyuncs.com/uploads/recipe/vod_file/102621/COLD_PASTA_THUMB.mp4","items_vod":[{"resolution":"original","url":"http://haemuk-production.oss-cn-shanghai.aliyuncs.com/uploads/recipe/vod_file/102621/COLD_PASTA_THUMB.mp4"},{"resolution":"360","url":"http://haemuk-production.oss-cn-shanghai.aliyuncs.com/uploads/recipe/vod_file/102621/resized_360_COLD_PASTA_THUMB.mp4"},{"resolution":"480","url":"http://haemuk-production.oss-cn-shanghai.aliyuncs.com/uploads/recipe/vod_file/102621/resized_480_COLD_PASTA_THUMB.mp4"},{"resolution":"720","url":"http://haemuk-production.oss-cn-shanghai.aliyuncs.com/uploads/recipe/vod_file/102621/resized_720_COLD_PASTA_THUMB.mp4"}],"hash_tags":"#拌 #面 #意面 #沙拉 #芝麻 #视频 #午餐 #拌面 #调味汁 #西红柿 #橄榄油 #面料理 #番茄沙司 #视频菜谱 #意大利冷面","difficulty":"상","cooking_time":" 40","bookmarks_count":1129,"view_count":12482,"popularity_score":178,"user_name":"美食男女","is_bookmarked":false}},{"link_type":"recipe","recipe":{"link_value":102600,"item_name":"玉米饼虾串烧","item_title":"什么叫一品料理？玉米饼虾串烧","cover_image":"http://haemuk-production.oss-cn-shanghai.aliyuncs.com/uploads/recipe/main_image_file/102600/resized_768_1024_cover_2600.jpg?x-oss-process=style/rt600","item_image":"http://haemuk-production.oss-cn-shanghai.aliyuncs.com/uploads/recipe/image_file/102600/resized_768_1024_main_2600.jpg?x-oss-process=style/rt600","item_vod":null,"items_vod":[],"hash_tags":"#墨西哥 #虾食谱 #墨西哥玉米饼","difficulty":"하","cooking_time":"30","bookmarks_count":1070,"view_count":11736,"popularity_score":154,"user_name":"Maple Daniel","is_bookmarked":false}},{"link_type":"recipe","recipe":{"link_value":102601,"item_name":"莎乐美哈密瓜卷","item_title":"简便又另类的香肠料理","cover_image":"http://haemuk-production.oss-cn-shanghai.aliyuncs.com/uploads/recipe/main_image_file/102601/resized_768_1024_cover_2601.jpg?x-oss-process=style/rt600","item_image":"http://haemuk-production.oss-cn-shanghai.aliyuncs.com/uploads/recipe/image_file/102601/resized_768_1024_main_2601.jpg?x-oss-process=style/rt600","item_vod":null,"items_vod":[],"hash_tags":"#香肠 #简单的菜谱","difficulty":"하","cooking_time":"10","bookmarks_count":561,"view_count":7066,"popularity_score":97,"user_name":"Maple Daniel","is_bookmarked":false}},{"link_type":"video_recipe","recipe":{"link_value":102583,"item_name":"五花肉紫菜包饭","item_title":"五花肉和紫菜包饭的双重享受","cover_image":"http://haemuk-production.oss-cn-shanghai.aliyuncs.com/uploads/recipe/main_image_file/102583/resized_768_1024_cover_2583.jpg?x-oss-process=style/rt600","item_image":"http://haemuk-production.oss-cn-shanghai.aliyuncs.com/uploads/recipe/image_file/102583/resized_768_1024_main_2583.jpg?x-oss-process=style/rt600","item_vod":"http://haemuk-production.oss-cn-shanghai.aliyuncs.com/uploads/recipe/vod_file/102583/porkbelly_kimbab_thumb.mp4","items_vod":[{"resolution":"original","url":"http://haemuk-production.oss-cn-shanghai.aliyuncs.com/uploads/recipe/vod_file/102583/porkbelly_kimbab_thumb.mp4"},{"resolution":"360","url":"http://haemuk-production.oss-cn-shanghai.aliyuncs.com/uploads/recipe/vod_file/102583/resized_360_porkbelly_kimbab_thumb.mp4"},{"resolution":"480","url":"http://haemuk-production.oss-cn-shanghai.aliyuncs.com/uploads/recipe/vod_file/102583/resized_480_porkbelly_kimbab_thumb.mp4"},{"resolution":"720","url":"http://haemuk-production.oss-cn-shanghai.aliyuncs.com/uploads/recipe/vod_file/102583/resized_720_porkbelly_kimbab_thumb.mp4"}],"hash_tags":"#饭 #卷 #效游 #视频 #五花肉 #紫菜包饭 #视频菜谱 #美食男女 #五花肉紫菜包饭","difficulty":"하","cooking_time":"15","bookmarks_count":5041,"view_count":35155,"popularity_score":691,"user_name":"美食男女","is_bookmarked":false}},{"link_type":"recipe","recipe":{"link_value":102557,"item_name":"韩式泡菜炸薯条","item_title":"名扬海外","cover_image":"http://haemuk-production.oss-cn-shanghai.aliyuncs.com/uploads/recipe/main_image_file/102557/resized_768_1024_cover_2557.jpg?x-oss-process=style/rt600","item_image":"http://haemuk-production.oss-cn-shanghai.aliyuncs.com/uploads/recipe/image_file/102557/resized_768_1024_main_2557.jpg?x-oss-process=style/rt600","item_vod":null,"items_vod":[],"hash_tags":"#炒泡菜 #炸薯条 #视觉饮食 #制作下酒菜","difficulty":"하","cooking_time":"25","bookmarks_count":2084,"view_count":22733,"popularity_score":434,"user_name":"Maple Daniel","is_bookmarked":false}},
  {"link_type":"recipe","recipe":{"link_value":102559,"item_name":"烤彩椒意式三明治","item_title":"烧烤味更浓郁","cover_image":"http://haemuk-production.oss-cn-shanghai.aliyuncs.com/uploads/recipe/main_image_file/102559/resized_768_1024_cover_2559.jpg?x-oss-process=style/rt600","item_image":"http://haemuk-production.oss-cn-shanghai.aliyuncs.com/uploads/recipe/image_file/102559/resized_768_1024_main_2559.jpg?x-oss-process=style/rt600","item_vod":null,"items_vod":[],"hash_tags":"#彩椒料理 #制作三明治 #帕尼尼三明治","difficulty":"하","cooking_time":"25","bookmarks_count":1355,"view_count":13352,"popularity_score":223,"user_name":"Maple Daniel","is_bookmarked":false}},{"link_type":"recipe","recipe":{"link_value":102565,"item_name":"咖喱烤鸡腿肉","item_title":"只要拿出个煎锅就行了有模有样的料理","cover_image":"http://haemuk-production.oss-cn-shanghai.aliyuncs.com/uploads/recipe/main_image_file/102565/resized_768_1024_cover_2565.jpg?x-oss-process=style/rt600","item_image":"http://haemuk-production.oss-cn-shanghai.aliyuncs.com/uploads/recipe/image_file/102565/resized_768_1024_main_2565.jpg?x-oss-process=style/rt600","item_vod":null,"items_vod":[],"hash_tags":"#烤鸡 #咖喱 #鸡腿肉 #咖喱料理 #烤鸡腿肉","difficulty":"중","cooking_time":"30","bookmarks_count":1035,"view_count":9499,"popularity_score":137,"user_name":"Aerikong","is_bookmarked":false}},{"link_type":"recipe","recipe":{"link_value":102539,"item_name":"玉米沙拉","item_title":"健康又简单的一餐玉米沙拉","cover_image":"http://haemuk-production.oss-cn-shanghai.aliyuncs.com/uploads/recipe/main_image_file/102539/resized_768_1024_cover_2539.jpg?x-oss-process=style/rt600","item_image":"http://haemuk-production.oss-cn-shanghai.aliyuncs.com/uploads/recipe/image_file/102539/resized_768_1024_main_2539.jpg?x-oss-process=style/rt600","item_vod":null,"items_vod":[],"hash_tags":"#沙拉 #玉米 #玉米沙拉","difficulty":"하","cooking_time":"20","bookmarks_count":1385,"view_count":12434,"popularity_score":211,"user_name":"Beerboy","is_bookmarked":false}},{"link_type":"video_recipe","recipe":{"link_value":102529,"item_name":"蒜味炸鸡","item_title":"做着吃更好吃的蒜味炸鸡","cover_image":"http://haemuk-production.oss-cn-shanghai.aliyuncs.com/uploads/recipe/main_image_file/102529/resized_768_1024_cover_2529.jpg?x-oss-process=style/rt600","item_image":"http://haemuk-production.oss-cn-shanghai.aliyuncs.com/uploads/recipe/image_file/102529/resized_768_1024_main_2529.jpg?x-oss-process=style/rt600","item_vod":"http://haemuk-production.oss-cn-shanghai.aliyuncs.com/uploads/recipe/vod_file/102529/GARLIC_CHICKEN_THUMB.mp4","items_vod":[{"resolution":"original","url":"http://haemuk-production.oss-cn-shanghai.aliyuncs.com/uploads/recipe/vod_file/102529/GARLIC_CHICKEN_THUMB.mp4"},{"resolution":"360","url":"http://haemuk-production.oss-cn-shanghai.aliyuncs.com/uploads/recipe/vod_file/102529/resized_360_GARLIC_CHICKEN_THUMB.mp4"},{"resolution":"480","url":"http://haemuk-production.oss-cn-shanghai.aliyuncs.com/uploads/recipe/vod_file/102529/resized_480_GARLIC_CHICKEN_THUMB.mp4"},{"resolution":"720","url":"http://haemuk-production.oss-cn-shanghai.aliyuncs.com/uploads/recipe/vod_file/102529/resized_720_GARLIC_CHICKEN_THUMB.mp4"}],"hash_tags":"#鸡 #大蒜 #炸鸡 #蒜味炸鸡 #油炸食品","difficulty":"중","cooking_time":"60","bookmarks_count":4820,"view_count":46355,"popularity_score":958,"user_name":"美食男女","is_bookmarked":false}},{"link_type":"video_recipe","recipe":{"link_value":102525,"item_name":"鸡尾烧酒","item_title":"甩掉炎热夏天的鸡尾烧酒制造法！","cover_image":"http://haemuk-production.oss-cn-shanghai.aliyuncs.com/uploads/recipe/main_image_file/102525/resized_768_1024_cover_2525.jpg?x-oss-process=style/rt600","item_image":"http://haemuk-production.oss-cn-shanghai.aliyuncs.com/uploads/recipe/image_file/102525/resized_768_1024_main_2525.jpg?x-oss-process=style/rt600","item_vod":"http://haemuk-production.oss-cn-shanghai.aliyuncs.com/uploads/recipe/vod_file/102525/cocktail_soju_thumb.mp4","items_vod":[{"resolution":"original","url":"http://haemuk-production.oss-cn-shanghai.aliyuncs.com/uploads/recipe/vod_file/102525/cocktail_soju_thumb.mp4"},{"resolution":"360","url":"http://haemuk-production.oss-cn-shanghai.aliyuncs.com/uploads/recipe/vod_file/102525/resized_360_cocktail_soju_thumb.mp4"},{"resolution":"480","url":"http://haemuk-production.oss-cn-shanghai.aliyuncs.com/uploads/recipe/vod_file/102525/resized_480_cocktail_soju_thumb.mp4"},{"resolution":"720","url":"http://haemuk-production.oss-cn-shanghai.aliyuncs.com/uploads/recipe/vod_file/102525/resized_720_cocktail_soju_thumb.mp4"}],"hash_tags":"#酒 #柚子 #西柚 #烧酒 #米酒 #雪碧 #鸡尾酒 #鸡尾烧酒","difficulty":"하","cooking_time":"10","bookmarks_count":2113,"view_count":13596,"popularity_score":393,"user_name":"美食男女","is_bookmarked":false}},{"link_type":"recipe","recipe":{"link_value":102522,"item_name":"胡萝卜蛋糕","item_title":"我们家的烤箱用来当碗橱用蒸饭锅做的胡萝卜蛋糕","cover_image":"http://haemuk-production.oss-cn-shanghai.aliyuncs.com/uploads/recipe/main_image_file/102522/resized_768_1024_cover_2522.jpg?x-oss-process=style/rt600","item_image":"http://haemuk-production.oss-cn-shanghai.aliyuncs.com/uploads/recipe/image_file/102522/resized_768_1024_main_2522.jpg?x-oss-process=style/rt600","item_vod":null,"items_vod":[],"hash_tags":"#胡萝卜 #电饭锅 #电饭锅蛋糕 #胡萝卜蛋糕 #电饭锅胡萝卜蛋糕","difficulty":"상","cooking_time":"60","bookmarks_count":898,"view_count":9152,"popularity_score":139,"user_name":"Aerikong","is_bookmarked":false}},{"link_type":"recipe","recipe":{"link_value":102495,"item_name":"美食总动员","item_title":"电影里的料理美食总动员","cover_image":"http://haemuk-production.oss-cn-shanghai.aliyuncs.com/uploads/recipe/main_image_file/102495/resized_768_1024_cover_2495.jpg?x-oss-process=style/rt600","item_image":"http://haemuk-production.oss-cn-shanghai.aliyuncs.com/uploads/recipe/image_file/102495/resized_768_1024_main_2495.jpg?x-oss-process=style/rt600","item_vod":null,"items_vod":[],"hash_tags":"#电影料理 #美食总动员","difficulty":"중","cooking_time":"40","bookmarks_count":1057,"view_count":11923,"popularity_score":222,"user_name":"Beerboy","is_bookmarked":false}},{"link_type":"recipe","recipe":{"link_value":102482,"item_name":"海带虾饺","item_title":"海带的华丽变身","cover_image":"http://haemuk-production.oss-cn-shanghai.aliyuncs.com/uploads/recipe/main_image_file/102482/resized_768_1024_cover_2482.jpg?x-oss-process=style/rt600","item_image":"http://haemuk-production.oss-cn-shanghai.aliyuncs.com/uploads/recipe/image_file/102482/resized_768_1024_main_2482.jpg?x-oss-process=style/rt600","item_vod":null,"items_vod":[],"hash_tags":"#饺子 #海边饮食 #海草类料理","difficulty":"하","cooking_time":"45","bookmarks_count":444,"view_count":5507,"popularity_score":39,"user_name":"Maple Daniel","is_bookmarked":false}},{"link_type":"recipe","recipe":{"link_value":102486,"item_name":"柠檬绿茶","item_title":"炎热的夏天来一杯~柠檬绿茶","cover_image":"http://haemuk-production.oss-cn-shanghai.aliyuncs.com/uploads/recipe/main_image_file/102486/resized_768_1024_cover_2486.jpg?x-oss-process=style/rt600","item_image":"http://haemuk-production.oss-cn-shanghai.aliyuncs.com/uploads/recipe/image_file/102486/resized_768_1024_main_2486.jpg?x-oss-process=style/rt600","item_vod":null,"items_vod":[],"hash_tags":"#柠檬 #绿茶 #柠檬绿茶","difficulty":"하","cooking_time":"15","bookmarks_count":2030,"view_count":13844,"popularity_score":510,"user_name":"Beerboy","is_bookmarked":false}},{"link_type":"recipe","recipe":{"link_value":102489,"item_name":"海螺开式三明治","item_title":"一口嚼劲","cover_image":"http://haemuk-production.oss-cn-shanghai.aliyuncs.com/uploads/recipe/main_image_file/102489/resized_768_1024_cover_2489.jpg?x-oss-process=style/rt600","item_image":"http://haemuk-production.oss-cn-shanghai.aliyuncs.com/uploads/recipe/image_file/102489/resized_768_1024_main_2489.jpg?x-oss-process=style/rt600","item_vod":null,"items_vod":[],"hash_tags":"#手食文化 #海螺料理 #家庭派对食谱","difficulty":"하","cooking_time":"10","bookmarks_count":609,"view_count":7673,"popularity_score":119,"user_name":"Maple Daniel","is_bookmarked":false}},
  {"link_type":"recipe","recipe":{"link_value":102492,"item_name":"东坡肉","item_title":"变高级的五花肉料理，满满的好滋味","cover_image":"http://haemuk-production.oss-cn-shanghai.aliyuncs.com/uploads/recipe/main_image_file/102492/resized_768_1024_cover_2492.jpg?x-oss-process=style/rt600","item_image":"http://haemuk-production.oss-cn-shanghai.aliyuncs.com/uploads/recipe/image_file/102492/resized_768_1024_main_2492.jpg?x-oss-process=style/rt600","item_vod":null,"items_vod":[],"hash_tags":"#猪肉料理 #猪肉菜品 #五花肉料理 #制作东坡肉","difficulty":"중","cooking_time":"160","bookmarks_count":4883,"view_count":46824,"popularity_score":834,"user_name":"Maple Daniel","is_bookmarked":false}},{"link_type":"video_recipe","recipe":{"link_value":102448,"item_name":"糖醋肉","item_title":"在家做出餐厅的味道！！好吃的糖醋肉","cover_image":"http://haemuk-production.oss-cn-shanghai.aliyuncs.com/uploads/recipe/main_image_file/102448/resized_768_1024_cover_2448.jpg?x-oss-process=style/rt600","item_image":"http://haemuk-production.oss-cn-shanghai.aliyuncs.com/uploads/recipe/image_file/102448/resized_768_1024_main_2448.jpg?x-oss-process=style/rt600","item_vod":"http://haemuk-production.oss-cn-shanghai.aliyuncs.com/uploads/recipe/vod_file/102448/sweet_and_sour_pork_thumb.mp4","items_vod":[{"resolution":"original","url":"http://haemuk-production.oss-cn-shanghai.aliyuncs.com/uploads/recipe/vod_file/102448/sweet_and_sour_pork_thumb.mp4"},{"resolution":"360","url":"http://haemuk-production.oss-cn-shanghai.aliyuncs.com/uploads/recipe/vod_file/102448/resized_360_sweet_and_sour_pork_thumb.mp4"},{"resolution":"480","url":"http://haemuk-production.oss-cn-shanghai.aliyuncs.com/uploads/recipe/vod_file/102448/resized_480_sweet_and_sour_pork_thumb.mp4"},{"resolution":"720","url":"http://haemuk-production.oss-cn-shanghai.aliyuncs.com/uploads/recipe/vod_file/102448/resized_720_sweet_and_sour_pork_thumb.mp4"}],"hash_tags":"#炸肉 #甜味 #肉类 #木耳 #酸味 #豌豆 #洋葱 #中式 #猪肉 #锅巴肉 #糖醋肉 #猪里脊 #胡萝卜 #腌萝卜 #中国餐厅 #油炸食品","difficulty":"중","cooking_time":"30","bookmarks_count":3626,"view_count":35282,"popularity_score":740,"user_name":"美食男女","is_bookmarked":false}},{"link_type":"recipe","recipe":{"link_value":102421,"item_name":"柑橘鸡尾酒","item_title":"看着就清爽！柑橘鸡尾酒","cover_image":"http://haemuk-production.oss-cn-shanghai.aliyuncs.com/uploads/recipe/main_image_file/102421/resized_768_1024_cover_2421.jpg?x-oss-process=style/rt600","item_image":"http://haemuk-production.oss-cn-shanghai.aliyuncs.com/uploads/recipe/image_file/102421/resized_768_1024_main_2421.jpg?x-oss-process=style/rt600","item_vod":null,"items_vod":[],"hash_tags":"#橙子 #柑橘 #柠檬 #鸡尾酒 #维生素C #柑橘鸡尾酒","difficulty":"하","cooking_time":"10","bookmarks_count":872,"view_count":7654,"popularity_score":132,"user_name":"Beerboy","is_bookmarked":false}},{"link_type":"recipe","recipe":{"link_value":102404,"item_name":"什锦菜","item_title":"没有肉也好吃的蘑菇什锦菜","cover_image":"http://haemuk-production.oss-cn-shanghai.aliyuncs.com/uploads/recipe/main_image_file/102404/resized_768_1024_cover_2404.jpg?x-oss-process=style/rt600","item_image":"http://haemuk-production.oss-cn-shanghai.aliyuncs.com/uploads/recipe/image_file/102404/resized_768_1024_main_2404.jpg?x-oss-process=style/rt600","item_vod":null,"items_vod":[],"hash_tags":"#环保日 #什锦菜 #蔬菜料理","difficulty":"하","cooking_time":"30","bookmarks_count":2100,"view_count":13712,"popularity_score":227,"user_name":"Maple Daniel","is_bookmarked":false}},{"link_type":"recipe","recipe":{"link_value":102361,"item_name":"烤鸡意式馅饼","item_title":"看起来像饺子，里边是披萨！烤鸡意式馅饼","cover_image":"http://haemuk-production.oss-cn-shanghai.aliyuncs.com/uploads/recipe/main_image_file/102361/resized_768_1024_cover_2361.jpg?x-oss-process=style/rt600","item_image":"http://haemuk-production.oss-cn-shanghai.aliyuncs.com/uploads/recipe/image_file/102361/resized_768_1024_main_2361.jpg?x-oss-process=style/rt600","item_vod":null,"items_vod":[],"hash_tags":"#鸡 #意式 #馅饼 #烤鸡 #披萨 #烤鸡意式馅饼","difficulty":"중","cooking_time":"40","bookmarks_count":505,"view_count":5678,"popularity_score":45,"user_name":"Beerboy","is_bookmarked":false}},{"link_type":"recipe","recipe":{"link_value":102359,"item_name":"芝士酱拼盘","item_title":"用家里有的材料简便又像样！芝士酱拼盘","cover_image":"http://haemuk-production.oss-cn-shanghai.aliyuncs.com/uploads/recipe/main_image_file/102359/resized_768_1024_cover_2359.jpg?x-oss-process=style/rt600","item_image":"http://haemuk-production.oss-cn-shanghai.aliyuncs.com/uploads/recipe/image_file/102359/resized_768_1024_main_2359.jpg?x-oss-process=style/rt600","item_vod":null,"items_vod":[],"hash_tags":"#拼盘 #芝士酱 #芝士酱拼盘","difficulty":"중","cooking_time":"30","bookmarks_count":979,"view_count":10639,"popularity_score":166,"user_name":"Beerboy","is_bookmarked":false}},{"link_type":"video_recipe","recipe":{"link_value":102358,"item_name":"鸡尾酒酱与烤虾","item_title":"饱满的烤虾放上酸酸甜甜的鸡尾酒酱","cover_image":"http://haemuk-production.oss-cn-shanghai.aliyuncs.com/uploads/recipe/main_image_file/102358/resized_768_1024_cover_2358.jpg?x-oss-process=style/rt600","item_image":"http://haemuk-production.oss-cn-shanghai.aliyuncs.com/uploads/recipe/image_file/102358/resized_768_1024_main_2358.jpg?x-oss-process=style/rt600","item_vod":"http://haemuk-production.oss-cn-shanghai.aliyuncs.com/uploads/recipe/vod_file/102358/SHRIMP_COKTAIL_THUMB.mp4","items_vod":[{"resolution":"original","url":"http://haemuk-production.oss-cn-shanghai.aliyuncs.com/uploads/recipe/vod_file/102358/SHRIMP_COKTAIL_THUMB.mp4"},{"resolution":"360","url":"http://haemuk-production.oss-cn-shanghai.aliyuncs.com/uploads/recipe/vod_file/102358/resized_360_SHRIMP_COKTAIL_THUMB.mp4"},{"resolution":"480","url":"http://haemuk-production.oss-cn-shanghai.aliyuncs.com/uploads/recipe/vod_file/102358/resized_480_SHRIMP_COKTAIL_THUMB.mp4"},{"resolution":"720","url":"http://haemuk-production.oss-cn-shanghai.aliyuncs.com/uploads/recipe/vod_file/102358/resized_720_SHRIMP_COKTAIL_THUMB.mp4"}],"hash_tags":"#虾 #烤虾 #视频 #鸡尾酒酱 #视频菜谱 #美食男女 #鸡尾酒酱与烤虾","difficulty":"하","cooking_time":"20","bookmarks_count":2311,"view_count":21716,"popularity_score":553,"user_name":"美食男女","is_bookmarked":false}},{"link_type":"recipe","recipe":{"link_value":102353,"item_name":"日式大酱意大利面","item_title":"香醇清淡的味道！日式大酱意大利面","cover_image":"http://haemuk-production.oss-cn-shanghai.aliyuncs.com/uploads/recipe/main_image_file/102353/resized_768_1024_cover_2353.jpg?x-oss-process=style/rt600","item_image":"http://haemuk-production.oss-cn-shanghai.aliyuncs.com/uploads/recipe/image_file/102353/resized_768_1024_main_2353.jpg?x-oss-process=style/rt600","item_vod":null,"items_vod":[],"hash_tags":"#大酱 #日式 #파스타 #日式大酱 #意大利面 #미소된장 #된장요리 #미소파스타 #된장파스타 #시금치파스타 #미소된장시금치 #日式大酱意大利面","difficulty":"중","cooking_time":"20","bookmarks_count":721,"view_count":6972,"popularity_score":45,"user_name":"Beerboy","is_bookmarked":false}},{"link_type":"recipe","recipe":{"link_value":102332,"item_name":"红酒腌LA排骨","item_title":"约会的浪漫","cover_image":"http://haemuk-production.oss-cn-shanghai.aliyuncs.com/uploads/recipe/main_image_file/102332/resized_768_1024_cover_2332.jpg?x-oss-process=style/rt600","item_image":"http://haemuk-production.oss-cn-shanghai.aliyuncs.com/uploads/recipe/image_file/102332/resized_768_1024_main_2332.jpg?x-oss-process=style/rt600","item_vod":null,"items_vod":[],"hash_tags":"#简易 #高档 #有情调 #纪念日食谱","difficulty":"하","cooking_time":"60","bookmarks_count":1002,"view_count":9970,"popularity_score":160,"user_name":"Maple Daniel","is_bookmarked":false}},{"link_type":"recipe","recipe":{"link_value":102333,"item_name":"三文鱼寿司披萨","item_title":"这样的披萨第一次吃吧？新鲜的三文鱼寿司披萨","cover_image":"http://haemuk-production.oss-cn-shanghai.aliyuncs.com/uploads/recipe/main_image_file/102333/resized_768_1024_cover_2333.jpg?x-oss-process=style/rt600","item_image":"http://haemuk-production.oss-cn-shanghai.aliyuncs.com/uploads/recipe/image_file/102333/resized_768_1024_main_2333.jpg?x-oss-process=style/rt600","item_vod":null,"items_vod":[],"hash_tags":"#披萨 #寿司披萨 #健康菜品","difficulty":"중","cooking_time":"45","bookmarks_count":708,"view_count":8128,"popularity_score":134,"user_name":"Maple Daniel","is_bookmarked":false}},
  {"link_type":"recipe","recipe":{"link_value":102339,"item_name":"蘑菇奶油焗面","item_title":"想要油腻？蘑菇奶油焗面","cover_image":"http://haemuk-production.oss-cn-shanghai.aliyuncs.com/uploads/recipe/main_image_file/102339/resized_768_1024_cover_2339.jpg?x-oss-process=style/rt600","item_image":"http://haemuk-production.oss-cn-shanghai.aliyuncs.com/uploads/recipe/image_file/102339/resized_768_1024_main_2339.jpg?x-oss-process=style/rt600","item_vod":null,"items_vod":[],"hash_tags":"#焗烤料理 #油腻的饮食 #高卡路里饮食","difficulty":"하","cooking_time":"40","bookmarks_count":1119,"view_count":9744,"popularity_score":154,"user_name":"Maple Daniel","is_bookmarked":false}},{"link_type":"recipe","recipe":{"link_value":102341,"item_name":"樱桃开式三明治","item_title":"好吃的樱桃","cover_image":"http://haemuk-production.oss-cn-shanghai.aliyuncs.com/uploads/recipe/main_image_file/102341/resized_768_1024_cover_2341.jpg?x-oss-process=style/rt600","item_image":"http://haemuk-production.oss-cn-shanghai.aliyuncs.com/uploads/recipe/image_file/102341/resized_768_1024_main_2341.jpg?x-oss-process=style/rt600","item_vod":null,"items_vod":[],"hash_tags":"#手抓食物 #爽口的料理 #家庭派对菜品","difficulty":"하","cooking_time":"10","bookmarks_count":946,"view_count":7623,"popularity_score":172,"user_name":"Maple Daniel","is_bookmarked":false}},{"link_type":"recipe","recipe":{"link_value":102343,"item_name":"蘸鳄梨","item_title":"鳄梨料理,这样的组合怎么样？","cover_image":"http://haemuk-production.oss-cn-shanghai.aliyuncs.com/uploads/recipe/main_image_file/102343/resized_768_1024_cover_2343.jpg?x-oss-process=style/rt600","item_image":"http://haemuk-production.oss-cn-shanghai.aliyuncs.com/uploads/recipe/image_file/102343/resized_768_1024_main_2343.jpg?x-oss-process=style/rt600","item_vod":null,"items_vod":[],"hash_tags":"#牛油果 #最佳组合 #鳄梨料理 #脆角零食","difficulty":"하","cooking_time":"25","bookmarks_count":871,"view_count":9192,"popularity_score":119,"user_name":"Maple Daniel","is_bookmarked":false}},{"link_type":"video_recipe","recipe":{"link_value":102303,"item_name":"法式三明治","item_title":"在家享受的早午饭法式三明治","cover_image":"http://haemuk-production.oss-cn-shanghai.aliyuncs.com/uploads/recipe/main_image_file/102303/resized_768_1024_cover_2303.jpg?x-oss-process=style/rt600","item_image":"http://haemuk-production.oss-cn-shanghai.aliyuncs.com/uploads/recipe/image_file/102303/resized_768_1024_main_2303.jpg?x-oss-process=style/rt600","item_vod":"http://haemuk-production.oss-cn-shanghai.aliyuncs.com/uploads/recipe/vod_file/102303/montecristo_thumb.mp4","items_vod":[{"resolution":"original","url":"http://haemuk-production.oss-cn-shanghai.aliyuncs.com/uploads/recipe/vod_file/102303/montecristo_thumb.mp4"},{"resolution":"360","url":"http://haemuk-production.oss-cn-shanghai.aliyuncs.com/uploads/recipe/vod_file/102303/resized_360_montecristo_thumb.mp4"},{"resolution":"480","url":"http://haemuk-production.oss-cn-shanghai.aliyuncs.com/uploads/recipe/vod_file/102303/resized_480_montecristo_thumb.mp4"},{"resolution":"720","url":"http://haemuk-production.oss-cn-shanghai.aliyuncs.com/uploads/recipe/vod_file/102303/resized_720_montecristo_thumb.mp4"}],"hash_tags":"#火腿 #香肠 #视频 #面包 #鸡蛋 #三明治 #视频菜谱 #法式三明治","difficulty":"중","cooking_time":"30","bookmarks_count":3983,"view_count":28874,"popularity_score":633,"user_name":"美食男女","is_bookmarked":false}},{"link_type":"recipe","recipe":{"link_value":102304,"item_name":"炖鸡","item_title":"丰盛的炖鸡在家享受！","cover_image":"http://haemuk-production.oss-cn-shanghai.aliyuncs.com/uploads/recipe/main_image_file/102304/resized_768_1024_cover_2304.jpg?x-oss-process=style/rt600","item_image":"http://haemuk-production.oss-cn-shanghai.aliyuncs.com/uploads/recipe/image_file/102304/resized_768_1024_main_2304.jpg?x-oss-process=style/rt600","item_vod":null,"items_vod":[],"hash_tags":"#찜닭","difficulty":"중","cooking_time":"25","bookmarks_count":2248,"view_count":21557,"popularity_score":249,"user_name":"Aerikong","is_bookmarked":false}},{"link_type":"video_recipe","recipe":{"link_value":102294,"item_name":"土豆汤","item_title":"一点都不难！柔软的肉质辣爽的汤","cover_image":"http://haemuk-production.oss-cn-shanghai.aliyuncs.com/uploads/recipe/main_image_file/102294/resized_768_1024_cover_2294.jpg?x-oss-process=style/rt600","item_image":"http://haemuk-production.oss-cn-shanghai.aliyuncs.com/uploads/recipe/image_file/102294/resized_768_1024_main_2294.jpg?x-oss-process=style/rt600","item_vod":"http://haemuk-production.oss-cn-shanghai.aliyuncs.com/uploads/recipe/vod_file/102294/BONE_SOUP_thumb.mp4","items_vod":[{"resolution":"original","url":"http://haemuk-production.oss-cn-shanghai.aliyuncs.com/uploads/recipe/vod_file/102294/BONE_SOUP_thumb.mp4"},{"resolution":"360","url":"http://haemuk-production.oss-cn-shanghai.aliyuncs.com/uploads/recipe/vod_file/102294/resized_360_BONE_SOUP_thumb.mp4"},{"resolution":"480","url":"http://haemuk-production.oss-cn-shanghai.aliyuncs.com/uploads/recipe/vod_file/102294/resized_480_BONE_SOUP_thumb.mp4"},{"resolution":"720","url":"http://haemuk-production.oss-cn-shanghai.aliyuncs.com/uploads/recipe/vod_file/102294/resized_720_BONE_SOUP_thumb.mp4"}],"hash_tags":"#汤 #辣爽 #土豆 #视频 #夜宵 #猪脊骨 #土豆汤 #视频菜谱","difficulty":"상","cooking_time":"60","bookmarks_count":4313,"view_count":38538,"popularity_score":765,"user_name":"美食男女","is_bookmarked":false}},{"link_type":"recipe","recipe":{"link_value":102274,"item_name":"杏仁猪肉丁","item_title":"用感谢和尊敬的心做充满诚意的父母节料理","cover_image":"http://haemuk-production.oss-cn-shanghai.aliyuncs.com/uploads/recipe/main_image_file/102274/resized_768_1024_cover_2274.jpg?x-oss-process=style/rt600","item_image":"http://haemuk-production.oss-cn-shanghai.aliyuncs.com/uploads/recipe/image_file/102274/resized_768_1024_main_2274.jpg?x-oss-process=style/rt600","item_vod":null,"items_vod":[],"hash_tags":"#杏仁 #猪肉","difficulty":"중","cooking_time":"30","bookmarks_count":904,"view_count":6760,"popularity_score":96,"user_name":"Aerikong","is_bookmarked":false}},{"link_type":"recipe","recipe":{"link_value":102269,"item_name":"烩饭煎饼","item_title":"用剩饭做像样的一餐！烩饭煎饼","cover_image":"http://haemuk-production.oss-cn-shanghai.aliyuncs.com/uploads/recipe/main_image_file/102269/resized_768_1024_cover_2269.jpg?x-oss-process=style/rt600","item_image":"http://haemuk-production.oss-cn-shanghai.aliyuncs.com/uploads/recipe/image_file/102269/resized_768_1024_main_2269.jpg?x-oss-process=style/rt600","item_vod":null,"items_vod":[],"hash_tags":"#烩饭 #米饭 #炒饭 #煎饼","difficulty":"중","cooking_time":"30","bookmarks_count":2733,"view_count":21080,"popularity_score":250,"user_name":"Beerboy","is_bookmarked":false}},{"link_type":"recipe","recipe":{"link_value":102249,"item_name":"凉汤半生牛肉片","item_title":"凉爽适口！凉汤半生牛肉片","cover_image":"http://haemuk-production.oss-cn-shanghai.aliyuncs.com/uploads/recipe/main_image_file/102249/resized_768_1024_cover_2249.jpg?x-oss-process=style/rt600","item_image":"http://haemuk-production.oss-cn-shanghai.aliyuncs.com/uploads/recipe/image_file/102249/resized_768_1024_main_2249.jpg?x-oss-process=style/rt600","item_vod":null,"items_vod":[],"hash_tags":"#凉汤 #牛肉片 #冷面高汤 #凉汤半生牛肉片","difficulty":"중","cooking_time":"40","bookmarks_count":845,"view_count":7511,"popularity_score":72,"user_name":"Beerboy","is_bookmarked":false}},{"link_type":"recipe","recipe":{"link_value":102239,"item_name":"酱油炖鸡","item_title":"可口的酱油料理，酱油炖鸡","cover_image":"http://haemuk-production.oss-cn-shanghai.aliyuncs.com/uploads/recipe/main_image_file/102239/resized_768_1024_cover_2239.jpg?x-oss-process=style/rt600","item_image":"http://haemuk-production.oss-cn-shanghai.aliyuncs.com/uploads/recipe/image_file/102239/resized_768_1024_main_2239.jpg?x-oss-process=style/rt600","item_vod":null,"items_vod":[],"hash_tags":"#辣炖鸡 #酱油料理 #家庭食谱","difficulty":"하","cooking_time":"40","bookmarks_count":3199,"view_count":22304,"popularity_score":513,"user_name":"Maple Daniel","is_bookmarked":false}},
  {"link_type":"recipe","recipe":{"link_value":102241,"item_name":"米皮鸡肉卷","item_title":"吃过还想吃的米皮鸡肉卷","cover_image":"http://haemuk-production.oss-cn-shanghai.aliyuncs.com/uploads/recipe/main_image_file/102241/resized_768_1024_cover_2241.jpg?x-oss-process=style/rt600","item_image":"http://haemuk-production.oss-cn-shanghai.aliyuncs.com/uploads/recipe/image_file/102241/resized_768_1024_main_2241.jpg?x-oss-process=style/rt600","item_vod":null,"items_vod":[],"hash_tags":"#接待饮食 #健康食谱","difficulty":"하","cooking_time":"35","bookmarks_count":3196,"view_count":22023,"popularity_score":456,"user_name":"Maple Daniel","is_bookmarked":false}},{"link_type":"recipe","recipe":{"link_value":102243,"item_name":"培根蔬菜卷","item_title":"人见人爱的培根料理","cover_image":"http://haemuk-production.oss-cn-shanghai.aliyuncs.com/uploads/recipe/main_image_file/102243/resized_768_1024_cover_2243.jpg?x-oss-process=style/rt600","item_image":"http://haemuk-production.oss-cn-shanghai.aliyuncs.com/uploads/recipe/image_file/102243/resized_768_1024_main_2243.jpg?x-oss-process=style/rt600","item_vod":null,"items_vod":[],"hash_tags":"#培根料理 #接待饮食 #烧烤菜品","difficulty":"하","cooking_time":"35","bookmarks_count":3613,"view_count":20610,"popularity_score":480,"user_name":"Maple Daniel","is_bookmarked":false}},{"link_type":"recipe","recipe":{"link_value":102158,"item_name":" 鱼子酱烤鸡","item_title":"又特别又简单鱼子酱烤鸡","cover_image":"http://haemuk-production.oss-cn-shanghai.aliyuncs.com/uploads/recipe/main_image_file/102158/resized_768_1024_cover_2158.jpg?x-oss-process=style/rt600","item_image":"http://haemuk-production.oss-cn-shanghai.aliyuncs.com/uploads/recipe/image_file/102158/resized_768_1024_main_2158.jpg?x-oss-process=style/rt600","item_vod":null,"items_vod":[],"hash_tags":"#烤箱 #鸡肉 #烤鸡 #蛋黄酱 #明太鱼子 #明太鱼子蛋黄酱 #明太鱼子蛋黄酱烤鸡","difficulty":"중","cooking_time":"80","bookmarks_count":831,"view_count":8621,"popularity_score":111,"user_name":"Beerboy","is_bookmarked":false}},{"link_type":"recipe","recipe":{"link_value":102150,"item_name":"芝士辣排骨","item_title":"比起猪排肉，芝士辣排骨才是真理","cover_image":"http://haemuk-production.oss-cn-shanghai.aliyuncs.com/uploads/recipe/main_image_file/102150/resized_768_1024_cover_2150.jpg?x-oss-process=style/rt600","item_image":"http://haemuk-production.oss-cn-shanghai.aliyuncs.com/uploads/recipe/image_file/102150/resized_768_1024_main_2150.jpg?x-oss-process=style/rt600","item_vod":null,"items_vod":[],"hash_tags":"#排骨食谱 #芝士辣排骨食谱 #韩国的外国饮食","difficulty":"하","cooking_time":"65","bookmarks_count":2917,"view_count":19535,"popularity_score":443,"user_name":"Maple Daniel","is_bookmarked":false}},{"link_type":"recipe","recipe":{"link_value":102146,"item_name":"蛋白泡饼干","item_title":"春春春天来了~粉红蛋泡饼干!","cover_image":"http://haemuk-production.oss-cn-shanghai.aliyuncs.com/uploads/recipe/main_image_file/102146/resized_768_1024_cover_2146.jpg?x-oss-process=style/rt600","item_image":"http://haemuk-production.oss-cn-shanghai.aliyuncs.com/uploads/recipe/image_file/102146/resized_768_1024_main_2146.jpg?x-oss-process=style/rt600","item_vod":null,"items_vod":[],"hash_tags":"#春 #樱花 #粉红 #白泡 #饼干 #白泡饼干 #蛋白泡饼干","difficulty":"하","cooking_time":"100","bookmarks_count":1322,"view_count":15314,"popularity_score":282,"user_name":"Haku","is_bookmarked":false}},{"link_type":"recipe","recipe":{"link_value":102134,"item_name":"番茄谢福德派","item_title":"放番茄的英式派","cover_image":"http://haemuk-production.oss-cn-shanghai.aliyuncs.com/uploads/recipe/main_image_file/102134/resized_768_1024_cover_2134.jpg?x-oss-process=style/rt600","item_image":"http://haemuk-production.oss-cn-shanghai.aliyuncs.com/uploads/recipe/image_file/102134/resized_768_1024_main_2134.jpg?x-oss-process=style/rt600","item_vod":null,"items_vod":[],"hash_tags":"#番茄 #토마토 #谢福德派 #생토마토 #셰퍼드파이 #토마토소스 #番茄谢福德派 #토마토셰퍼드파이","difficulty":"중","cooking_time":"40","bookmarks_count":680,"view_count":5623,"popularity_score":96,"user_name":"Beerboy","is_bookmarked":false}},{"link_type":"recipe","recipe":{"link_value":102130,"item_name":"海螺拌挂面","item_title":"有酒在里面~ 吃起来顺口的海螺拌挂面!","cover_image":"http://haemuk-production.oss-cn-shanghai.aliyuncs.com/uploads/recipe/main_image_file/102130/resized_768_1024_cover_2130.jpg?x-oss-process=style/rt600","item_image":"http://haemuk-production.oss-cn-shanghai.aliyuncs.com/uploads/recipe/image_file/102130/resized_768_1024_main_2130.jpg?x-oss-process=style/rt600","item_vod":null,"items_vod":[],"hash_tags":"#拌菜 #挂面 #海螺 #海螺罐 #拌挂面! #海螺拌挂面","difficulty":"중","cooking_time":"40","bookmarks_count":2908,"view_count":19453,"popularity_score":259,"user_name":"Haku","is_bookmarked":false}},{"link_type":"recipe","recipe":{"link_value":102131,"item_name":"迷你卡普里","item_title":"一口大小! 迷你卡普里","cover_image":"http://haemuk-production.oss-cn-shanghai.aliyuncs.com/uploads/recipe/main_image_file/102131/resized_768_1024_cover_2131.jpg?x-oss-process=style/rt600","item_image":"http://haemuk-production.oss-cn-shanghai.aliyuncs.com/uploads/recipe/image_file/102131/resized_768_1024_main_2131.jpg?x-oss-process=style/rt600","item_vod":null,"items_vod":[],"hash_tags":"#迷你 #小番茄 #卡普里 #迷你卡普里","difficulty":"하","cooking_time":"30","bookmarks_count":1276,"view_count":9580,"popularity_score":168,"user_name":"Haku","is_bookmarked":false}},{"link_type":"recipe","recipe":{"link_value":102120,"item_name":"盖饭","item_title":"3月应季小章鱼健康的烤章鱼盖饭","cover_image":"http://haemuk-production.oss-cn-shanghai.aliyuncs.com/uploads/recipe/main_image_file/102120/resized_768_1024_cover_2120.jpg?x-oss-process=style/rt600","item_image":"http://haemuk-production.oss-cn-shanghai.aliyuncs.com/uploads/recipe/image_file/102120/resized_768_1024_main_2120.jpg?x-oss-process=style/rt600","item_vod":null,"items_vod":[],"hash_tags":"#章鱼 #海鲜 #盖饭 #烤章鱼盖饭","difficulty":"중","cooking_time":"40","bookmarks_count":830,"view_count":6802,"popularity_score":104,"user_name":"Beerboy","is_bookmarked":false}},{"link_type":"recipe","recipe":{"link_value":102079,"item_name":"大蒜玉米饼棒","item_title":"会上瘾的零食，用玉米饼做的大蒜玉米饼棒","cover_image":"http://haemuk-production.oss-cn-shanghai.aliyuncs.com/uploads/recipe/main_image_file/102079/resized_768_1024_cover_2079.jpg?x-oss-process=style/rt600","item_image":"http://haemuk-production.oss-cn-shanghai.aliyuncs.com/uploads/recipe/image_file/102079/resized_768_1024_main_2079.jpg?x-oss-process=style/rt600","item_vod":null,"items_vod":[],"hash_tags":"#面粉 #玉米 #玉米饼 #大蒜饼棒 #大蒜玉米饼棒","difficulty":"중","cooking_time":"20","bookmarks_count":1450,"view_count":12766,"popularity_score":249,"user_name":"Beerboy","is_bookmarked":false}}
]